{
    "Quality Owner View": [],
    "Some Second View": [{
        "name": "Carbon UI-Chrome - F63",
        "color": "red_anime",
        "lastSuccessfulBuild": {
            "id": "2016-01-13_13-43-23"
        },
        "lastUnsuccessfulBuild": {
            "actions": [{}, {}, {}, {}, {}, {}, {
                "claimedBy": null
            }, {}, {}, {}, {}, {}, {}, {}],
            "culprits": []
        }
    }, {
        "name": "Neon AS - F153",
        "color": "red",
        "lastSuccessfulBuild": {
            "id": "2015-12-30_22-51-16"
        },
        "lastUnsuccessfulBuild": {
            "actions": [{}, {}, {}, {}, {}, {}, {}, {}, {
                "claimedBy": "morgansn"
            }, {}, {}, {}, {}, {}],
            "culprits": [{
                "fullName": "alejandro.casado",
                "id": "alejandro.casado"
            }, {
                "fullName": "Yasser Ansari",
                "id": "ansariy"
            }, {
                "fullName": "Alex Chazot",
                "id": "chazota"
            }, {
                "fullName": "Helen Finkelstein",
                "id": "finkelsteinh"
            }, {
                "fullName": "Ivan Gomez",
                "id": "gomezi"
            }, {
                "fullName": "james.talbot",
                "id": "james.talbot"
            }, {
                "fullName": "jenkins",
                "id": "jenkins"
            }, {
                "fullName": "Matthew Lovert",
                "id": "lovertm"
            }, {
                "fullName": "Robert Mackay",
                "id": "mackayr"
            }]
        }
    }, {
        "name": "Neon AS - F154",
        "color": "red_anime",
        "lastSuccessfulBuild": null,
        "lastUnsuccessfulBuild": {
            "actions": [{}, {}, {}, {}, {}, {}, {}, {
                "claimedBy": null
            }, {}, {}, {}, {}],
            "culprits": [{
                "fullName": "alejandro.casado",
                "id": "alejandro.casado"
            }, {
                "fullName": "Robert Mackay",
                "id": "mackayr"
            }]
        }
    }, {
        "name": "Neon UI-Chrome - F63",
        "color": "red",
        "lastSuccessfulBuild": {
            "id": "2016-01-11_15-57-24"
        },
        "lastUnsuccessfulBuild": {
            "actions": [{}, {}, {}, {}, {}, {}, {
                "claimedBy": null
            }, {}, {}, {}, {}, {}, {}, {}],
            "culprits": [{
                "fullName": "jenkins",
                "id": "jenkins"
            }, {
                "fullName": "unknown",
                "id": "unknown"
            }]
        }
    }, {
        "name": "Rest API - F153",
        "color": "red",
        "lastSuccessfulBuild": {
            "id": "2016-01-07_14-11-48"
        },
        "lastUnsuccessfulBuild": {
            "actions": [{}, {}, {}, {}, {}, {}, {}, {}, {}],
            "culprits": [{
                "fullName": "Alex Chazot",
                "id": "chazota"
            }, {
                "fullName": "Alayne Malkin",
                "id": "malkina"
            }, {
                "fullName": "noblem",
                "id": "noblem"
            }, {
                "fullName": "James Scarborough",
                "id": "scarboroughj"
            }, {
                "fullName": "Darren Sproston",
                "id": "sprostond"
            }]
        }
    }, {
        "name": "Rest API - F63",
        "color": "red_anime",
        "lastSuccessfulBuild": {
            "id": "2016-01-07_10-11-22"
        },
        "lastUnsuccessfulBuild": {
            "actions": [{}, {}, {}, {}, {}, {}, {}, {}],
            "culprits": [{
                "fullName": "Alex Chazot",
                "id": "chazota"
            }, {
                "fullName": "Alayne Malkin",
                "id": "malkina"
            }, {
                "fullName": "noblem",
                "id": "noblem"
            }, {
                "fullName": "James Scarborough",
                "id": "scarboroughj"
            }, {
                "fullName": "Darren Sproston",
                "id": "sprostond"
            }]
        }
    }, {
        "name": "Rest AS - F153",
        "color": "red",
        "lastSuccessfulBuild": {
            "id": "2016-01-12_12-10-39"
        },
        "lastUnsuccessfulBuild": {
            "actions": [{}, {}, {}, {}, {}, {}, {
                "claimedBy": null
            }, {}, {}, {}, {}, {}, {}],
            "culprits": [{
                "fullName": "Yasser Ansari",
                "id": "ansariy"
            }, {
                "fullName": "Ivan Gomez",
                "id": "gomezi"
            }]
        }
    }],
    "Delphi Team Builds Views": [{
        "name": "Carbon UI-Chrome - F63",
        "color": "red",
        "lastSuccessfulBuild": {
            "id": "2016-02-19_14-30-30"
        },
        "lastUnsuccessfulBuild": {
            "actions": [{}, {}, {}, {}, {}, {}, {
                "claimedBy": null
            }, {}, {}],
            "culprits": []
        }
    }, {
        "name": "FGA-development-XE5-unit-test",
        "color": "red",
        "lastSuccessfulBuild": {
            "id": "2015-10-20_17-19-54"
        },
        "lastUnsuccessfulBuild": {
            "actions": [{}, {}, {}, {}, {}, {
                "claimedBy": "humphreysm"
            }, {}, {}],
            "culprits": [{
                "fullName": "Mark Humphreys",
                "id": "humphreysm"
            }, {
                "fullName": "Christoph Kieselmann",
                "id": "kieselmannc"
            }]
        }
    }, {
        "name": "FGE-development-XE5-unit-test",
        "color": "red",
        "lastSuccessfulBuild": {
            "id": "2016-01-26_16-35-12"
        },
        "lastUnsuccessfulBuild": {
            "actions": [{}, {}, {}, {}, {}, {}, {}],
            "culprits": [{
                "fullName": "Steven Cassidy",
                "id": "cassidys"
            }, {
                "fullName": "Mark Humphreys",
                "id": "humphreysm"
            }, {
                "fullName": "Sarah Prescott",
                "id": "prescotts"
            }]
        }
    }]
}